^D:\USERS\HIKARU\DOCUMENTS\LUDUS\PROGRAMS\BACHELOR\CPP\2020-01-09_PRODUIT_VECTEUR_MATRICE\2020-01-09_PRODUIT_VECTEUR_MATRICE\DEBUG\MAIN.OBJ|D:\USERS\HIKARU\DOCUMENTS\LUDUS\PROGRAMS\BACHELOR\CPP\2020-01-09_PRODUIT_VECTEUR_MATRICE\2020-01-09_PRODUIT_VECTEUR_MATRICE\DEBUG\MATRICE.OBJ|D:\USERS\HIKARU\DOCUMENTS\LUDUS\PROGRAMS\BACHELOR\CPP\2020-01-09_PRODUIT_VECTEUR_MATRICE\2020-01-09_PRODUIT_VECTEUR_MATRICE\DEBUG\VECTEUR.OBJ
/OUT:"D:\USERS\HIKARU\DOCUMENTS\LUDUS\PROGRAMS\BACHELOR\CPP\2020-01-09_PRODUIT_VECTEUR_MATRICE\2020-01-09_PRODUIT_VECTEUR_MATRICE\DEBUG\2020-01-09_PRODUIT_VECTEUR_MATRICE.EXE" /INCREMENTAL /NOLOGO KERNEL32.LIB USER32.LIB GDI32.LIB WINSPOOL.LIB COMDLG32.LIB ADVAPI32.LIB SHELL32.LIB OLE32.LIB OLEAUT32.LIB UUID.LIB ODBC32.LIB ODBCCP32.LIB /MANIFEST /MANIFESTUAC:"level='asInvoker' uiAccess='false'" /manifest:embed /DEBUG:FASTLINK /PDB:"D:\USERS\HIKARU\DOCUMENTS\LUDUS\PROGRAMS\BACHELOR\CPP\2020-01-09_PRODUIT_VECTEUR_MATRICE\2020-01-09_PRODUIT_VECTEUR_MATRICE\DEBUG\2020-01-09_PRODUIT_VECTEUR_MATRICE.PDB" /SUBSYSTEM:CONSOLE /TLBID:1 /DYNAMICBASE /NXCOMPAT /IMPLIB:"D:\USERS\HIKARU\DOCUMENTS\LUDUS\PROGRAMS\BACHELOR\CPP\2020-01-09_PRODUIT_VECTEUR_MATRICE\2020-01-09_PRODUIT_VECTEUR_MATRICE\DEBUG\2020-01-09_PRODUIT_VECTEUR_MATRICE.LIB" /MACHINE:X86 DEBUG\MAIN.OBJ
DEBUG\MATRICE.OBJ
DEBUG\VECTEUR.OBJ
